ActsPixelClusterizationAlg                                        INFO Clusterization statistics
|----------|------------|
| RDOs     |    3423993 |
| Clusters |    1165578 |
|----------|------------|
ActsStripClusterizationAlg                                        INFO Clusterization statistics
|----------|------------|
| RDOs     |    1345365 |
| Clusters |    1081478 |
|----------|------------|
ActsPixelClusterPreparationAlg                                    INFO Data Prep statistics
|---------|------------|
| Inputs  |    1165578 |
| Outputs |    1165578 |
|---------|------------|
ActsStripClusterPreparationAlg                                    INFO Data Prep statistics
|---------|------------|
| Inputs  |    1081478 |
| Outputs |    1081478 |
|---------|------------|
ActsPixelSpacePointFormationAlg                                   INFO Space Point Formation statistics
|--------------|------------|
| Clusters     |    1165578 |
| Space Points |    1165578 |
|--------------|------------|
ActsStripSpacePointFormationAlg                                   INFO Space Point Formation statistics
|----------------------|------------|
| Clusters             |    1081478 |
| Space Points         |     325456 |
| Overlap Space Points |      94491 |
|----------------------|------------|
ActsPixelSpacePointPreparationAlg                                 INFO Data Prep statistics
|---------|------------|
| Inputs  |    1165578 |
| Outputs |    1165578 |
|---------|------------|
ActsStripSpacePointPreparationAlg                                 INFO Data Prep statistics
|---------|------------|
| Inputs  |     325456 |
| Outputs |     325456 |
|---------|------------|
ActsStripOverlapSpacePointPreparationAlg                          INFO Data Prep statistics
|---------|------------|
| Inputs  |      94491 |
| Outputs |      94491 |
|---------|------------|
ActsPixelSeedingAlg                                               INFO Seed statistics
|---------------------|------------|
| Spacepoints         |    1165578 |
| Seeds               |     123542 |
| No track parameters |          0 |
|---------------------|------------|
ActsStripSeedingAlg                                               INFO Seed statistics
|---------------------|------------|
| Spacepoints         |     419947 |
| Seeds               |      24791 |
| No track parameters |          0 |
|---------------------|------------|
ActsTrackFindingAlg                                               INFO statistics
|-----------------------------------|------------|------------|------------|
|                           All eta | PPP        | SSS        | ALL        |
|-----------------------------------|------------|------------|------------|
| Input seeds                       |     123542 |      24791 |     148333 |
| No track parameters               |          0 |          0 |          0 |
| Used   seeds                      |      78069 |      15328 |      93397 |
| Cannot find track                 |      63303 |      11684 |      74987 |
| Duplicate seeds                   |      45473 |       9463 |      54936 |
| CKF tracks                        |      14766 |       3644 |      18410 |
| Rejected refined parameters       |          0 |          0 |          0 |
| selected tracks                   |      13441 |       1041 |      14482 |
| Stopped tracks reaching max holes |      60889 |      11191 |      72080 |
| Seeds with more than one branch   |          0 |          0 |          0 |
| Tracks failing second CKF         |          0 |          0 |          0 |
| Stopped tracks below pT cut       |       2414 |        493 |       2907 |
| Stopped tracks above max eta      |          0 |          0 |          0 |
|-----------------------------------|------------|------------|------------|
ActsTrackFindingAlg                                               INFO Ratios
|------------------------------------------|------------|------------|------------|
|                                          | PPP        | SSS        | ALL        |
|------------------------------------------|------------|------------|------------|
| failed / seeds                           |   0.512401 |     0.4713 |   0.505531 |
| duplication / seeds                      |   0.368077 |   0.381711 |   0.370356 |
| Rejected refined params / seeds          |          0 |          0 |          0 |
| selected / CKF tracks                    |   0.910267 |   0.285675 |   0.786638 |
| selected tracks / used seeds             |   0.172168 |  0.0679149 |   0.155059 |
| branched tracks / used seeds             |          0 |          0 |          0 |
| no 2nd CKF / CKF tracks                  |          0 |          0 |          0 |
|------------------------------------------|------------|------------|------------|
| selected / CKF tracks           0.0- 0.5 |   0.901821 |   0.182306 |   0.737775 |
|                                 0.5- 1.0 |   0.916089 |   0.328063 |   0.763347 |
|                                 1.0- 1.5 |    0.88935 |   0.288973 |   0.729209 |
|                                 1.5- 2.0 |   0.798904 |    0.30389 |   0.599215 |
|                                 2.0- 2.5 |   0.962283 |   0.278607 |   0.734768 |
|                                 2.5- 3.0 |   0.891033 |          0 |   0.891033 |
|                                 3.0- 3.5 |   0.942103 |          0 |   0.942103 |
|                                 3.5-+inf |   0.960328 |          0 |   0.960328 |
|------------------------------------------|------------|------------|------------|
ActsLargeRadiusPixelClusterizationAlg                             INFO Clusterization statistics
|----------|------------|
| RDOs     |          0 |
| Clusters |          0 |
|----------|------------|
ActsLargeRadiusStripClusterizationAlg                             INFO Clusterization statistics
|----------|------------|
| RDOs     |          0 |
| Clusters |          0 |
|----------|------------|
ActsLargeRadiusPixelClusterPreparationAlg                         INFO Data Prep statistics
|---------|------------|
| Inputs  |    1165578 |
| Outputs |    1062486 |
|---------|------------|
ActsLargeRadiusStripClusterPreparationAlg                         INFO Data Prep statistics
|---------|------------|
| Inputs  |    1081478 |
| Outputs |    1039860 |
|---------|------------|
ActsLargeRadiusStripSpacePointFormationAlg                        INFO Space Point Formation statistics
|----------------------|------------|
| Clusters             |    1039860 |
| Space Points         |          0 |
| Overlap Space Points |          0 |
|----------------------|------------|
ActsLargeRadiusStripSpacePointPreparationAlg                      INFO Data Prep statistics
|---------|------------|
| Inputs  |     324393 |
| Outputs |     302717 |
|---------|------------|
ActsLargeRadiusStripOv...pSpacePointPreparationAlg                INFO Data Prep statistics
|---------|------------|
| Inputs  |      94036 |
| Outputs |      87874 |
|---------|------------|
ActsLargeRadiusStripSeedingAlg                                    INFO Seed statistics
|---------------------|------------|
| Spacepoints         |     390591 |
| Seeds               |       8907 |
| No track parameters |          0 |
|---------------------|------------|
ActsLargeRadiusTrackFindingAlg                                    INFO statistics
|-----------------------------------|------------|------------|
|                           All eta | SSS        | ALL        |
|-----------------------------------|------------|------------|
| Input seeds                       |       8907 |       8907 |
| No track parameters               |          0 |          0 |
| Used   seeds                      |       8904 |       8904 |
| Cannot find track                 |       8163 |       8163 |
| Duplicate seeds                   |          3 |          3 |
| CKF tracks                        |        741 |        741 |
| Rejected refined parameters       |          0 |          0 |
| selected tracks                   |          2 |          2 |
| Stopped tracks reaching max holes |       6376 |       6376 |
| Seeds with more than one branch   |          0 |          0 |
| Tracks failing second CKF         |          0 |          0 |
| Stopped tracks below pT cut       |       1787 |       1787 |
| Stopped tracks above max eta      |          0 |          0 |
|-----------------------------------|------------|------------|
ActsLargeRadiusTrackFindingAlg                                    INFO Ratios
|------------------------------------------|------------|------------|
|                                          | SSS        | ALL        |
|------------------------------------------|------------|------------|
| failed / seeds                           |    0.91647 |    0.91647 |
| duplication / seeds                      | 0.000336814 | 0.000336814 |
| Rejected refined params / seeds          |          0 |          0 |
| selected / CKF tracks                    | 0.00269906 | 0.00269906 |
| selected tracks / used seeds             | 0.000224618 | 0.000224618 |
| branched tracks / used seeds             |          0 |          0 |
| no 2nd CKF / CKF tracks                  |          0 |          0 |
|------------------------------------------|------------|------------|
| selected / CKF tracks           0.0- 0.5 |          0 |          0 |
|                                 0.5- 1.0 |          0 |          0 |
|                                 1.0- 1.5 |          0 |          0 |
|                                 1.5- 2.0 |          0 |          0 |
|                                 2.0- 2.5 | 0.00790514 | 0.00790514 |
|                                 2.5- 3.0 |          0 |          0 |
|                                 3.0- 3.5 |          0 |          0 |
|                                 3.5-+inf |          0 |          0 |
|------------------------------------------|------------|------------|
ActsConversionPixelClusterizationAlg                              INFO Clusterization statistics
|----------|------------|
| RDOs     |          0 |
| Clusters |          0 |
|----------|------------|
ActsConversionStripClusterizationAlg                              INFO Clusterization statistics
|----------|------------|
| RDOs     |          0 |
| Clusters |          0 |
|----------|------------|
ActsConversionPixelClusterPreparationAlg                          INFO Data Prep statistics
|---------|------------|
| Inputs  |      30471 |
| Outputs |      27085 |
|---------|------------|
ActsConversionStripClusterPreparationAlg                          INFO Data Prep statistics
|---------|------------|
| Inputs  |      16420 |
| Outputs |      15482 |
|---------|------------|
ActsConversionStripSpacePointFormationAlg                         INFO Space Point Formation statistics
|----------------------|------------|
| Clusters             |      15482 |
| Space Points         |          0 |
| Overlap Space Points |          0 |
|----------------------|------------|
ActsConversionStripSpacePointPreparationAlg                       INFO Data Prep statistics
|---------|------------|
| Inputs  |       4977 |
| Outputs |       4486 |
|---------|------------|
ActsConversionStripSeedingAlg                                     INFO Seed statistics
|---------------------|------------|
| Spacepoints         |       4486 |
| Seeds               |         70 |
| No track parameters |          0 |
|---------------------|------------|
ActsConversionTrackFindingAlg                                     INFO statistics
|-----------------------------------|------------|------------|
|                           All eta | SSS        | ALL        |
|-----------------------------------|------------|------------|
| Input seeds                       |         70 |         70 |
| No track parameters               |          0 |          0 |
| Used   seeds                      |         70 |         70 |
| Cannot find track                 |         53 |         53 |
| Duplicate seeds                   |          0 |          0 |
| CKF tracks                        |         17 |         17 |
| Rejected refined parameters       |          0 |          0 |
| selected tracks                   |          0 |          0 |
| Stopped tracks reaching max holes |         45 |         45 |
| Seeds with more than one branch   |          0 |          0 |
| Tracks failing second CKF         |          0 |          0 |
| Stopped tracks below pT cut       |          8 |          8 |
| Stopped tracks above max eta      |          0 |          0 |
|-----------------------------------|------------|------------|
ActsConversionTrackFindingAlg                                     INFO Ratios
|------------------------------------------|------------|------------|
|                                          | SSS        | ALL        |
|------------------------------------------|------------|------------|
| failed / seeds                           |   0.757143 |   0.757143 |
| duplication / seeds                      |          0 |          0 |
| Rejected refined params / seeds          |          0 |          0 |
| selected / CKF tracks                    |          0 |          0 |
| selected tracks / used seeds             |          0 |          0 |
| branched tracks / used seeds             |          0 |          0 |
| no 2nd CKF / CKF tracks                  |          0 |          0 |
|------------------------------------------|------------|------------|
| selected / CKF tracks           0.0- 0.5 |          0 |          0 |
|                                 0.5- 1.0 |          0 |          0 |
|                                 1.0- 1.5 |          0 |          0 |
|                                 1.5- 2.0 |          0 |          0 |
|                                 2.0- 2.5 |          0 |          0 |
|                                 2.5- 3.0 |          0 |          0 |
|                                 3.0- 3.5 |          0 |          0 |
|                                 3.5-+inf |          0 |          0 |
|------------------------------------------|------------|------------|
ActsLowPtPixelClusterizationAlg                                   INFO Clusterization statistics
|----------|------------|
| RDOs     |          0 |
| Clusters |          0 |
|----------|------------|
ActsLowPtStripClusterizationAlg                                   INFO Clusterization statistics
|----------|------------|
| RDOs     |          0 |
| Clusters |          0 |
|----------|------------|
ActsLowPtPixelClusterPreparationAlg                               INFO Data Prep statistics
|---------|------------|
| Inputs  |    1165578 |
| Outputs |    1062478 |
|---------|------------|
ActsLowPtStripClusterPreparationAlg                               INFO Data Prep statistics
|---------|------------|
| Inputs  |    1081478 |
| Outputs |    1039845 |
|---------|------------|
ActsLowPtPixelSpacePointFormationAlg                              INFO Space Point Formation statistics
|--------------|------------|
| Clusters     |    1062478 |
| Space Points |          0 |
|--------------|------------|
ActsLowPtStripSpacePointFormationAlg                              INFO Space Point Formation statistics
|----------------------|------------|
| Clusters             |    1039845 |
| Space Points         |          0 |
| Overlap Space Points |          0 |
|----------------------|------------|
ActsLowPtPixelSpacePointPreparationAlg                            INFO Data Prep statistics
|---------|------------|
| Inputs  |    1165561 |
| Outputs |    1062478 |
|---------|------------|
ActsLowPtStripSpacePointPreparationAlg                            INFO Data Prep statistics
|---------|------------|
| Inputs  |     324393 |
| Outputs |     302709 |
|---------|------------|
ActsLowPtStripOverlapSpacePointPreparationAlg                     INFO Data Prep statistics
|---------|------------|
| Inputs  |      94036 |
| Outputs |      87874 |
|---------|------------|
ActsLowPtPixelSeedingAlg                                          INFO Seed statistics
|---------------------|------------|
| Spacepoints         |    1062478 |
| Seeds               |      46573 |
| No track parameters |          0 |
|---------------------|------------|
ActsLowPtStripSeedingAlg                                          INFO Seed statistics
|---------------------|------------|
| Spacepoints         |     390583 |
| Seeds               |       8901 |
| No track parameters |          0 |
|---------------------|------------|
ActsLowPtTrackFindingAlg                                          INFO statistics
|-----------------------------------|------------|------------|------------|
|                           All eta | PPP        | SSS        | ALL        |
|-----------------------------------|------------|------------|------------|
| Input seeds                       |      46573 |       8901 |      55474 |
| No track parameters               |          0 |          0 |          0 |
| Used   seeds                      |      45759 |       8536 |      54295 |
| Cannot find track                 |      44714 |       6938 |      51652 |
| Duplicate seeds                   |        814 |        365 |       1179 |
| CKF tracks                        |       1045 |       1598 |       2643 |
| Rejected refined parameters       |          0 |          0 |          0 |
| selected tracks                   |        626 |         74 |        700 |
| Stopped tracks reaching max holes |      44275 |       6898 |      51173 |
| Seeds with more than one branch   |          0 |          0 |          0 |
| Tracks failing second CKF         |          0 |          1 |          1 |
| Stopped tracks below pT cut       |        439 |         40 |        479 |
| Stopped tracks above max eta      |          0 |          0 |          0 |
|-----------------------------------|------------|------------|------------|
ActsLowPtTrackFindingAlg                                          INFO Ratios
|------------------------------------------|------------|------------|------------|
|                                          | PPP        | SSS        | ALL        |
|------------------------------------------|------------|------------|------------|
| failed / seeds                           |   0.960084 |   0.779463 |   0.931103 |
| duplication / seeds                      |  0.0174779 |  0.0410066 |  0.0212532 |
| Rejected refined params / seeds          |          0 |          0 |          0 |
| selected / CKF tracks                    |   0.599043 |  0.0463079 |   0.264851 |
| selected tracks / used seeds             |  0.0136804 | 0.00866917 |  0.0128925 |
| branched tracks / used seeds             |          0 |          0 |          0 |
| no 2nd CKF / CKF tracks                  |          0 | 0.000625782 | 0.000378358 |
|------------------------------------------|------------|------------|------------|
| selected / CKF tracks           0.0- 0.5 |   0.967742 | 0.00813008 |   0.421296 |
|                                 0.5- 1.0 |          1 |   0.017094 |   0.433498 |
|                                 1.0- 1.5 |   0.984962 |  0.0939597 |   0.514184 |
|                                 1.5- 2.0 |   0.946708 |  0.0798193 |   0.361139 |
|                                 2.0- 2.5 |   0.116279 | 0.00733945 |  0.0153061 |
|                                 2.5- 3.0 |      0.025 |          0 |      0.025 |
|                                 3.0- 3.5 |  0.0210526 |          0 |  0.0210526 |
|                                 3.5-+inf |  0.0657895 |          0 |  0.0657895 |
|------------------------------------------|------------|------------|------------|
